﻿{
  "ViewModels": [
    {
        "id": 1,
        "code": "HMS91",
        "name": "John Smith",
        "firstName": "John",
        "middleName": "",
        "lastName": "Smith",
        "email": "JohnHMS@gmail.com",
        "phone": "789",
        "mobile": "9686975078",
        "gender": "Male",
        "dob": "12-01-1982",
        "role": [
            {
                "name": "User"
            }
        ],
		"usertype": "HMS21",
        "status": true,
        "profilePictureUrl": "http://2.gravatar.com/userimage/70020097/88ed11c81310af97fd0afd859c57b09b",
        "updateCount": 3,
        "fkCompanyCode": "vHMS",
        "fkLocationCode": "Ananthpur",
        "createdAt": "20-07-2015",
        "createdBy": 1,
        "modifiedAt": "20-07-2015",
        "modifiedBy": 1
    },
   
    {
        "id": 2,
       "code": "HMS92",
        "name": "David R",
        "firstName": "David",
        "middleName": "",
        "lastName": "R",
        "email": "DavidHMS@gmail.com",
        "phone": "78912",
        "mobile": "9686975078",
        "gender": "Male",
        "dob": "22-07-1981",
        "role": [
            {
                "name": "User"
            }
        ],
		"usertype": "HMS21",
        "status": true,
        "profilePictureUrl": "http://www.gravatar.com/avatar",
        "updateCount": 3,
        "fkCompanyCode": "vHMS",
        "fkLocationCode": "Ananthpur",
        "createdAt": "20-07-2015",
        "createdBy": 1,
        "modifiedAt": "20-07-2015",
        "modifiedBy": 1
    },
    
    {
        "id": 3,
       "code": "HMS93",
        "name": "Mark R",
        "firstName": "Mark",
        "middleName": "",
        "lastName": "R",
        "email": "markHMS@gmail.com",
        "phone": "789122121",
        "mobile": "9686975011",
        "gender": "Male",
        "dob": "22-11-1991",
        "role": [
            {
                "name": "User"
            }
        ],
		"usertype": "HMS21",
        "status": true,
        "profilePictureUrl": "http://www.gravatar.com/avatar",
        "updateCount": 3,
        "fkCompanyCode": "vHMS",
        "fkLocationCode": "Ananthpur",
        "createdAt": "20-07-2015",
        "createdBy": 1,
        "modifiedAt": "20-07-2015",
        "modifiedBy": 1
    },
    
    {
        "id": 4,
       "code": "HMS94",
        "name": "sunil ",
        "firstName": "sunil",
        "middleName": "",
        "lastName": "",
        "email": "sunilHMS@gmail.com",
        "phone": "389122121",
        "mobile": "7686975011",
        "gender": "Male",
        "dob": "21-10-1981",
        "role": [
            {
                "name": "User"
            }
        ],
		"usertype": "HMS21",
        "status": true,
        "profilePictureUrl": "http://www.gravatar.com/avatar",
        "updateCount": 3,
        "fkCompanyCode": "vHMS",
        "fkLocationCode": "Ananthpur",
        "createdAt": "20-07-2015",
        "createdBy": 1,
        "modifiedAt": "20-07-2015",
        "modifiedBy": 1
    },
    {
        "id": 5,
       "code": "HMS95",
        "name": "Raj ",
        "firstName": "Raj",
        "middleName": "",
        "lastName": "",
        "email": "rajHMS@gmail.com",
        "phone": "384122121",
        "mobile": "7386975011",
        "gender": "Male",
        "dob": "21-09-1981",
        "role": [
            {
                "name": "User"
            }
        ],
		"usertype": "HMS21",
        "status": true,
        "profilePictureUrl": "http://www.gravatar.com/avatar",
        "updateCount": 3,
        "fkCompanyCode": "vHMS",
        "fkLocationCode": "Ananthpur",
        "createdAt": "20-07-2015",
        "createdBy": 1,
        "modifiedAt": "20-07-2015",
        "modifiedBy": 1
    },
    {
        "id": 6,
       "code": "HMS96",
        "name": "Raju ",
        "firstName": "Raju",
        "middleName": "",
        "lastName": "",
        "email": "rajuHMS@gmail.com",
        "phone": "384322121",
        "mobile": "7336975011",
        "gender": "Male",
        "dob": "21-01-1981",
        "role": [
            {
                "name": "User"
            }
        ],
		"usertype": "HMS21",
        "status": true,
        "profilePictureUrl": "http://www.gravatar.com/avatar",
        "updateCount": 3,
        "fkCompanyCode": "vHMS",
        "fkLocationCode": "Ananthpur",
        "createdAt": "20-07-2015",
        "createdBy": 1,
        "modifiedAt": "20-07-2015",
        "modifiedBy": 1
    }
  ],
  "Success": true
}